[gd_scene load_steps=8 format=2]

[sub_resource type="SpatialMaterial" id=1]

vertex_color_use_as_albedo = true
roughness = 0.0

[sub_resource type="Gradient" id=2]

offsets = PoolRealArray( 0.277473, 0.648352, 1 )
colors = PoolColorArray( 1, 0, 0.383459, 1, 0, 0.976562, 1, 1, 0, 0, 0, 1 )

[sub_resource type="GradientTexture" id=3]

gradient = SubResource( 2 )

[sub_resource type="Gradient" id=4]

offsets = PoolRealArray( 0, 0.125874, 0.727273, 1 )
colors = PoolColorArray( 0.0300752, 0.0300752, 0.0300752, 1, 1, 1, 1, 1, 1, 1, 1, 1, 0, 0, 0, 1 )

[sub_resource type="GradientTexture" id=5]

gradient = SubResource( 4 )

[sub_resource type="FutariMaterial" id=6]

emission_shape = 1
emission_sphere_radius = 3.0
flag_rotate_X = true
flag_rotate_y = true
flag_rotate_z = true
flag_messy_orientation = true
angular_velocity = 1.47136e-43
radial_accel = 3.0
angle = 2.0
angle_random = 0.24
angle_x_mult = 1.0
angle_y_mult = 1.0
angle_z_mult = 1.0
scale = 0.4
scale_gradient = SubResource( 5 )
color_ramp = SubResource( 3 )

[sub_resource type="CubeMesh" id=7]


[node name="root" type="Spatial"]

[node name="SpotLight" type="SpotLight" parent="."]
transform = Transform( 0.926452, -0.310292, 0.213087, 0, 0.566099, 0.824337, -0.376414, -0.763709, 0.524463, 4.56156, 19.7579, 12.8105 )
shadow_enabled = true
spot_range = 28.4758

[node name="FutariParticles" type="FutariParticles" parent="."]
transform = Transform( 1, 0, 0, 0, 1, 0, 0, 0, 1, 0, 5.58593, 0 )
material_override = SubResource( 1 )
amount = 300
lifetime = 1.5
process_material = SubResource( 6 )
draw_pass_1 = SubResource( 7 )

